[gd_scene load_steps=2 format=2]

[ext_resource path="res://scenes/Die.tscn" type="PackedScene" id=1]

[node name="Die" type="Spatial"]

[node name="Die" parent="." instance=ExtResource( 1 )]
transform = Transform( 1, 0, 0, 0, 1, 0, 0, 0, 1, 0, 1.1, 0 )

[node name="CamRoot" type="Spatial" parent="Die"]
transform = Transform( 1, 0, 0, 0, 1, 0, 0, 0, 1, 0, -1.1, 0 )
