[gd_scene load_steps=6 format=2]

[ext_resource path="res://assets/game_objects/W8baseColor_Mat.material" type="Material" id=2]

[sub_resource type="ArrayMesh" id=1]
resource_name = "W8_Cone"
surfaces/0 = {
"aabb": AABB( -0.956074, -0.956074, -0.956074, 1.91215, 1.91215, 1.91215 ),
"array_data": PoolByteArray( 243, 55, 39, 61, 242, 55, 39, 189, 1, 25, 107, 191, 90, 166, 181, 114, 182, 56, 213, 56, 243, 55, 39, 189, 242, 55, 39, 189, 1, 25, 107, 191, 166, 166, 202, 117, 195, 56, 249, 56, 243, 55, 39, 189, 242, 55, 39, 61, 1, 25, 107, 191, 166, 90, 68, 9, 203, 59, 28, 52, 243, 55, 39, 61, 242, 55, 39, 61, 1, 25, 107, 191, 90, 90, 179, 93, 211, 56, 187, 56, 0, 0, 0, 0, 194, 217, 73, 189, 30, 67, 109, 191, 74, 129, 189, 114, 188, 56, 231, 56, 0, 0, 0, 0, 0, 0, 0, 0, 64, 193, 116, 191, 127, 127, 208, 102, 215, 56, 221, 56, 0, 0, 0, 0, 0, 0, 0, 0, 64, 193, 116, 191, 127, 127, 35, 17, 234, 59, 51, 52, 196, 217, 73, 189, 0, 0, 0, 0, 30, 67, 109, 191, 129, 74, 9, 124, 216, 56, 251, 56, 196, 217, 73, 189, 0, 0, 0, 0, 30, 67, 109, 191, 129, 74, 64, 18, 219, 59, 3, 52, 0, 0, 0, 0, 194, 217, 73, 61, 30, 67, 109, 191, 74, 127, 179, 77, 229, 56, 195, 56, 0, 0, 0, 0, 194, 217, 73, 61, 30, 67, 109, 191, 74, 127, 62, 8, 207, 59, 68, 52, 196, 217, 73, 61, 0, 0, 0, 0, 30, 67, 109, 191, 127, 74, 185, 106, 196, 56, 200, 56, 1, 25, 107, 63, 242, 55, 39, 189, 232, 55, 39, 189, 90, 184, 179, 121, 112, 54, 156, 54, 1, 25, 107, 63, 243, 55, 39, 61, 232, 55, 39, 189, 90, 72, 181, 101, 169, 54, 105, 54, 1, 25, 107, 63, 244, 55, 39, 61, 253, 55, 39, 61, 54, 36, 202, 109, 143, 54, 33, 54, 1, 25, 107, 63, 242, 55, 39, 189, 253, 55, 39, 61, 54, 220, 206, 34, 252, 39, 251, 57, 31, 67, 109, 63, 252, 254, 180, 177, 177, 217, 73, 189, 126, 204, 185, 112, 141, 54, 131, 54, 64, 193, 116, 63, 2, 43, 165, 48, 23, 193, 39, 51, 126, 0, 0, 17, 30, 36, 240, 57, 64, 193, 116, 63, 2, 43, 165, 48, 23, 193, 39, 51, 126, 0, 48, 126, 104, 54, 89, 54, 30, 67, 109, 63, 196, 217, 73, 61, 245, 193, 47, 51, 74, 52, 189, 105, 157, 54, 69, 54, 30, 67, 109, 63, 0, 0, 0, 49, 206, 217, 73, 61, 74, 0, 230, 32, 252, 37, 8, 58, 30, 67, 109, 63, 0, 0, 0, 49, 206, 217, 73, 61, 74, 0, 253, 122, 102, 54, 29, 54, 30, 67, 109, 63, 195, 217, 73, 189, 245, 193, 47, 51, 74, 204, 211, 31, 126, 39, 231, 57, 30, 67, 109, 63, 195, 217, 73, 189, 245, 193, 47, 51, 74, 204, 98, 116, 75, 54, 141, 54, 221, 55, 39, 61, 242, 55, 39, 189, 1, 25, 107, 63, 36, 220, 190, 39, 246, 50, 180, 59, 221, 55, 39, 61, 242, 55, 39, 61, 1, 25, 107, 63, 36, 36, 196, 102, 169, 55, 244, 46, 8, 56, 39, 189, 240, 55, 39, 61, 1, 25, 107, 63, 220, 36, 154, 101, 224, 55, 32, 46, 7, 56, 39, 189, 242, 55, 39, 189, 1, 25, 107, 63, 220, 220, 133, 89, 136, 51, 193, 59, 179, 217, 73, 61, 252, 254, 180, 177, 30, 67, 109, 63, 52, 0, 211, 39, 190, 50, 195, 59, 179, 217, 73, 61, 252, 254, 180, 177, 30, 67, 109, 63, 52, 0, 228, 102, 131, 55, 187, 46, 81, 109, 158, 179, 172, 28, 154, 176, 64, 193, 116, 63, 0, 0, 161, 47, 27, 51, 212, 59, 81, 109, 158, 179, 172, 28, 154, 176, 64, 193, 116, 63, 0, 0, 190, 93, 159, 55, 238, 45, 245, 193, 175, 179, 194, 217, 73, 61, 30, 67, 109, 63, 0, 52, 172, 100, 197, 55, 141, 46, 218, 217, 73, 189, 0, 0, 128, 177, 30, 67, 109, 63, 204, 0, 137, 91, 144, 51, 213, 59, 218, 217, 73, 189, 0, 0, 128, 177, 30, 67, 109, 63, 204, 0, 155, 97, 211, 55, 133, 45, 245, 193, 171, 179, 195, 217, 73, 189, 30, 67, 109, 63, 0, 204, 155, 41, 64, 51, 186, 59, 1, 25, 107, 191, 242, 55, 39, 189, 240, 55, 39, 61, 202, 220, 154, 101, 27, 56, 70, 59, 1, 25, 107, 191, 242, 55, 39, 61, 240, 55, 39, 61, 202, 36, 133, 103, 41, 58, 135, 40, 1, 25, 107, 191, 242, 55, 39, 61, 246, 55, 39, 189, 166, 72, 79, 6, 77, 58, 90, 41, 1, 25, 107, 191, 242, 55, 39, 189, 246, 55, 39, 189, 166, 184, 196, 121, 54, 56, 43, 59, 31, 67, 109, 191, 0, 0, 0, 0, 192, 217, 73, 61, 182, 0, 155, 105, 33, 56, 89, 59, 31, 67, 109, 191, 0, 0, 0, 0, 192, 217, 73, 61, 182, 0, 137, 102, 39, 58, 137, 38, 64, 193, 116, 191, 0, 0, 0, 0, 46, 230, 13, 178, 129, 0, 190, 127, 59, 56, 76, 59, 64, 193, 116, 191, 0, 0, 0, 0, 46, 230, 13, 178, 129, 0, 161, 1, 68, 58, 172, 38, 30, 67, 109, 191, 205, 217, 73, 61, 124, 173, 63, 178, 182, 52, 155, 8, 59, 58, 248, 40, 30, 67, 109, 191, 0, 0, 0, 0, 199, 217, 73, 189, 129, 52, 48, 117, 73, 56, 50, 59, 30, 67, 109, 191, 0, 0, 0, 0, 199, 217, 73, 189, 129, 52, 78, 16, 92, 58, 107, 40, 30, 67, 109, 191, 205, 217, 73, 189, 124, 173, 63, 178, 182, 204, 172, 111, 40, 56, 56, 59, 243, 55, 39, 189, 1, 25, 107, 63, 242, 55, 39, 189, 184, 90, 180, 1, 140, 57, 188, 52, 242, 55, 39, 189, 1, 25, 107, 63, 243, 55, 39, 61, 220, 54, 140, 101, 105, 57, 157, 52, 242, 55, 39, 61, 1, 25, 107, 63, 244, 55, 39, 61, 36, 54, 180, 101, 78, 57, 209, 52, 242, 55, 39, 61, 1, 25, 107, 63, 242, 55, 39, 189, 72, 90, 165, 90, 91, 57, 24, 53, 195, 217, 73, 189, 30, 67, 109, 63, 153, 186, 72, 48, 204, 74, 149, 14, 122, 57, 172, 52, 0, 0, 0, 46, 64, 193, 116, 63, 129, 149, 40, 49, 0, 126, 130, 32, 110, 57, 223, 52, 205, 12, 189, 177, 30, 67, 109, 63, 196, 217, 73, 61, 0, 74, 159, 99, 91, 57, 183, 52, 194, 217, 73, 61, 30, 67, 109, 63, 233, 6, 164, 49, 52, 74, 171, 97, 84, 57, 244, 52, 0, 0, 0, 0, 30, 67, 109, 63, 195, 217, 73, 189, 204, 126, 138, 65, 112, 57, 28, 53, 0, 0, 0, 0, 30, 67, 109, 63, 195, 217, 73, 189, 204, 126, 74, 1, 140, 57, 229, 52, 242, 55, 39, 189, 1, 25, 107, 191, 243, 55, 39, 189, 184, 166, 180, 114, 123, 53, 161, 57, 243, 55, 39, 61, 1, 25, 107, 191, 242, 55, 39, 189, 72, 166, 165, 117, 96, 53, 125, 57, 242, 55, 39, 61, 1, 25, 107, 191, 243, 55, 39, 61, 36, 202, 180, 37, 254, 52, 171, 57, 243, 55, 39, 189, 1, 25, 107, 191, 242, 55, 39, 61, 220, 202, 140, 93, 68, 53, 187, 57, 0, 0, 0, 0, 30, 67, 109, 191, 195, 217, 73, 189, 204, 129, 171, 113, 110, 53, 143, 57, 0, 0, 192, 174, 64, 193, 116, 191, 172, 28, 102, 48, 0, 129, 129, 95, 57, 53, 154, 57, 195, 217, 73, 61, 30, 67, 109, 191, 234, 6, 164, 49, 52, 182, 183, 37, 253, 52, 151, 57, 195, 217, 73, 61, 30, 67, 109, 191, 234, 6, 164, 49, 52, 182, 123, 124, 54, 53, 123, 57, 164, 27, 16, 177, 30, 67, 109, 191, 195, 217, 73, 61, 0, 182, 149, 39, 33, 53, 179, 57, 195, 217, 73, 189, 30, 67, 109, 191, 149, 186, 72, 48, 204, 182, 159, 105, 96, 53, 174, 57 ),
"array_index_data": PoolByteArray( 38, 0, 2, 0, 48, 0, 15, 0, 60, 0, 24, 0, 27, 0, 61, 0, 36, 0, 39, 0, 58, 0, 1, 0, 3, 0, 13, 0, 51, 0, 26, 0, 37, 0, 49, 0, 14, 0, 25, 0, 50, 0, 0, 0, 5, 0, 4, 0, 0, 0, 11, 0, 5, 0, 1, 0, 5, 0, 7, 0, 1, 0, 4, 0, 5, 0, 2, 0, 6, 0, 10, 0, 2, 0, 8, 0, 6, 0, 3, 0, 5, 0, 11, 0, 3, 0, 9, 0, 5, 0, 12, 0, 18, 0, 16, 0, 12, 0, 23, 0, 18, 0, 13, 0, 18, 0, 19, 0, 13, 0, 16, 0, 18, 0, 14, 0, 18, 0, 21, 0, 14, 0, 19, 0, 18, 0, 15, 0, 17, 0, 22, 0, 15, 0, 20, 0, 17, 0, 24, 0, 30, 0, 28, 0, 24, 0, 35, 0, 30, 0, 25, 0, 31, 0, 32, 0, 25, 0, 29, 0, 31, 0, 26, 0, 31, 0, 34, 0, 26, 0, 32, 0, 31, 0, 27, 0, 30, 0, 35, 0, 27, 0, 33, 0, 30, 0, 36, 0, 42, 0, 40, 0, 36, 0, 47, 0, 42, 0, 37, 0, 43, 0, 44, 0, 37, 0, 41, 0, 43, 0, 38, 0, 43, 0, 46, 0, 38, 0, 44, 0, 43, 0, 39, 0, 42, 0, 47, 0, 39, 0, 45, 0, 42, 0, 48, 0, 53, 0, 52, 0, 48, 0, 57, 0, 53, 0, 49, 0, 53, 0, 54, 0, 49, 0, 52, 0, 53, 0, 50, 0, 53, 0, 55, 0, 50, 0, 54, 0, 53, 0, 51, 0, 53, 0, 56, 0, 51, 0, 55, 0, 53, 0, 58, 0, 63, 0, 62, 0, 58, 0, 67, 0, 63, 0, 59, 0, 63, 0, 65, 0, 59, 0, 62, 0, 63, 0, 60, 0, 63, 0, 66, 0, 60, 0, 64, 0, 63, 0, 61, 0, 63, 0, 67, 0, 61, 0, 66, 0, 63, 0, 3, 0, 16, 0, 13, 0, 3, 0, 11, 0, 16, 0, 11, 0, 12, 0, 16, 0, 11, 0, 0, 0, 12, 0, 2, 0, 57, 0, 48, 0, 2, 0, 10, 0, 57, 0, 9, 0, 51, 0, 56, 0, 9, 0, 3, 0, 51, 0, 50, 0, 19, 0, 14, 0, 50, 0, 55, 0, 19, 0, 55, 0, 13, 0, 19, 0, 55, 0, 51, 0, 13, 0, 14, 0, 29, 0, 25, 0, 14, 0, 21, 0, 29, 0, 20, 0, 24, 0, 28, 0, 20, 0, 15, 0, 24, 0, 49, 0, 32, 0, 26, 0, 49, 0, 54, 0, 32, 0, 54, 0, 25, 0, 32, 0, 54, 0, 50, 0, 25, 0, 26, 0, 41, 0, 37, 0, 26, 0, 34, 0, 41, 0, 33, 0, 36, 0, 40, 0, 33, 0, 27, 0, 36, 0, 48, 0, 44, 0, 38, 0, 48, 0, 52, 0, 44, 0, 52, 0, 37, 0, 44, 0, 52, 0, 49, 0, 37, 0, 38, 0, 8, 0, 2, 0, 38, 0, 46, 0, 8, 0, 45, 0, 1, 0, 7, 0, 45, 0, 39, 0, 1, 0, 0, 0, 62, 0, 59, 0, 0, 0, 4, 0, 62, 0, 4, 0, 58, 0, 62, 0, 4, 0, 1, 0, 58, 0, 59, 0, 23, 0, 12, 0, 59, 0, 65, 0, 23, 0, 64, 0, 15, 0, 22, 0, 64, 0, 60, 0, 15, 0, 60, 0, 35, 0, 24, 0, 60, 0, 66, 0, 35, 0, 66, 0, 27, 0, 35, 0, 66, 0, 61, 0, 27, 0, 61, 0, 47, 0, 36, 0, 61, 0, 67, 0, 47, 0, 67, 0, 39, 0, 47, 0, 67, 0, 58, 0, 39, 0, 0, 0, 59, 0, 12, 0 ),
"blend_shape_data": [  ],
"format": 2194711,
"index_count": 312,
"material": ExtResource( 2 ),
"primitive": 4,
"skeleton_aabb": [  ],
"vertex_count": 68
}

[sub_resource type="ConvexPolygonShape" id=2]
points = PoolVector3Array( -0.0850063, -0.879389, -0.0282584, 0.0288993, 0.929375, 0.0289349, 0.0288993, 0.929375, -0.0289349, 0.929367, -0.0289314, 0.0289314, -0.0289784, -0.0289338, 0.929338, -0.929369, 0.028929, 0.028929, 0.0288993, -0.0289349, -0.929375, 0.0288993, -0.929375, 0.0289349, -0.0850063, 0.0282584, -0.879389, 0.0282247, 0.084959, 0.87945, 0.857489, 0.056933, -0.0855785, -0.879454, -0.0849424, 0.0282549, 0.0570775, -0.885814, -0.0571088, 0.0570775, -0.0571088, 0.885814, -0.0571532, 0.885743, -0.0571043, -0.0571532, 0.885743, 0.0571043, 0.0570775, 0.0571088, -0.885814, -0.885806, -0.057097, -0.057097, 0.879446, 0.0849494, 0.0282572, 0.857335, -0.0571018, -0.0855632, -0.0571532, 0.0571043, 0.885743, -0.0571532, -0.885743, 0.0571043, -0.885806, 0.057097, -0.057097, -0.0571532, -0.0571043, -0.885743, 0.0570775, 0.0571088, 0.885814, -0.0571532, -0.885743, -0.0571043, -0.0571532, 0.0571043, -0.885743, 0.0570775, -0.885814, 0.0571088, 0.0570775, 0.885814, 0.0571088, -0.0571532, -0.0571043, 0.885743, -0.885806, 0.057097, 0.057097, 0.0570775, 0.885814, -0.0571088, 0.0570775, -0.0571088, -0.885814, 0.857335, -0.0571018, 0.0855632, -0.885806, -0.057097, 0.057097, 0.857489, 0.056933, 0.0855785, 0.929425, 0.0287513, -0.0289333, 0.929367, -0.0289314, -0.0289314, -0.0289784, 0.929338, -0.0289338, 0.0288993, 0.0289349, -0.929375, -0.929369, -0.028929, -0.028929, -0.0283039, -0.87942, -0.0849561, 0.084933, 0.0282608, 0.879461, -0.0289784, 0.929338, 0.0289338, -0.0289784, -0.0289338, -0.929338, -0.0289784, 0.0289338, 0.929338, 0.0288993, -0.0289349, 0.929375, 0.0288993, -0.929375, -0.0289349, -0.0289784, -0.929338, 0.0289338, -0.929369, 0.028929, -0.028929, -0.0283039, 0.0849561, -0.87942, -0.879454, -0.0282549, 0.0849424, 0.879512, 0.0280816, 0.0849558, 0.879446, -0.0849494, -0.0282572, -0.0282988, -0.822574, 0.141805, 0.17021, 0.0280745, -0.794261, -0.879454, 0.0849424, -0.0282549, -0.0283039, 0.87942, 0.0849561, 0.0282247, 0.87945, -0.084959, 0.0282247, -0.084959, -0.87945, -0.879454, -0.0282549, -0.0849424, -0.0850063, 0.0282584, 0.879389, -0.0850063, 0.879389, 0.0282584, 0.084933, -0.0282608, 0.879461 )

[sub_resource type="SphereShape" id=3]

[sub_resource type="SphereMesh" id=4]

[node name="RigidBody" type="RigidBody"]

[node name="MeshDie" type="MeshInstance" parent="."]
mesh = SubResource( 1 )
skeleton = NodePath("../..")
material/0 = null

[node name="CollisionShapeDie" type="CollisionShape" parent="."]
shape = SubResource( 2 )

[node name="CollisionShapeSphere" type="CollisionShape" parent="."]
transform = Transform( 0.7, 0, 0, 0, 0.7, 0, 0, 0, 0.7, 0, 0, 0 )
shape = SubResource( 3 )
disabled = true

[node name="MeshSphere" type="MeshInstance" parent="."]
transform = Transform( 0.7, 0, 0, 0, 0.7, 0, 0, 0, 0.7, 0, 0, 0 )
visible = false
mesh = SubResource( 4 )
material/0 = ExtResource( 2 )
